<?xml version="1.0" encoding="UTF-8" standalone="no"?><!DOCTYPE svg PUBLIC "-//W3C//DTD SVG 1.1//EN" "http://www.w3.org/Graphics/SVG/1.1/DTD/svg11.dtd"><!-- Generated by graphviz version 2.40.1 (20161225.0304)
 --><!-- Title: %0 Pages: 1 --><svg xmlns="http://www.w3.org/2000/svg" xmlns:xlink="http://www.w3.org/1999/xlink" width="758pt" height="260pt" viewBox="0.00 0.00 757.55 260.00">
<g id="graph0" class="graph" transform="scale(1 1) rotate(0) translate(4 256)">
<title>%0</title>
<polygon fill="#ffffff" stroke="transparent" points="-4,4 -4,-256 753.547,-256 753.547,4 -4,4"/>
<!-- Functor -->
<g id="node1" class="node">
<title>Functor</title>
<polygon fill="none" stroke="#000000" points="127.771,-252 68.6708,-252 68.6708,-216 127.771,-216 127.771,-252"/>
<text text-anchor="middle" x="98.2209" y="-229.8" font-family="Times,serif" font-size="14.00" fill="#000000">Functor</text>
</g>
<!-- Applicative -->
<g id="node2" class="node">
<title>Applicative</title>
<polygon fill="none" stroke="#000000" points="229.0343,-180 147.4075,-180 147.4075,-144 229.0343,-144 229.0343,-180"/>
<text text-anchor="middle" x="188.2209" y="-157.8" font-family="Times,serif" font-size="14.00" fill="#000000">Applicative</text>
</g>
<!-- Functor&#45;&gt;Applicative -->
<g id="edge1" class="edge">
<title>Functor-&gt;Applicative</title>
<path fill="none" stroke="#000000" d="M120.9317,-215.8314C132.0169,-206.9632 145.5163,-196.1637 157.5061,-186.5718"/>
<polygon fill="#000000" stroke="#000000" points="159.8951,-189.1429 165.5174,-180.1628 155.5222,-183.6768 159.8951,-189.1429"/>
</g>
<!-- Traversable -->
<g id="node18" class="node">
<title>Traversable</title>
<polygon fill="none" stroke="#000000" points="177.2883,-36 95.1535,-36 95.1535,0 177.2883,0 177.2883,-36"/>
<text text-anchor="middle" x="136.2209" y="-13.8" font-family="Times,serif" font-size="14.00" fill="#000000">Traversable</text>
</g>
<!-- Functor&#45;&gt;Traversable -->
<g id="edge25" class="edge">
<title>Functor-&gt;Traversable</title>
<path fill="none" stroke="#000000" d="M101.3954,-215.9555C108.0174,-178.3144 123.3455,-91.1867 131.2731,-46.1246"/>
<polygon fill="#000000" stroke="#000000" points="134.743,-46.6003 133.0287,-36.1451 127.8489,-45.3874 134.743,-46.6003"/>
</g>
<!-- Comonad -->
<g id="node19" class="node">
<title>Comonad</title>
<polygon fill="none" stroke="#c0c0c0" points="70.6641,-180 -.2223,-180 -.2223,-144 70.6641,-144 70.6641,-180"/>
<text text-anchor="middle" x="35.2209" y="-157.8" font-family="Times,serif" font-size="14.00" fill="#000000">Comonad</text>
</g>
<!-- Functor&#45;&gt;Comonad -->
<g id="edge26" class="edge">
<title>Functor-&gt;Comonad</title>
<path fill="none" stroke="#000000" d="M82.3233,-215.8314C74.9931,-207.454 66.1549,-197.3531 58.124,-188.1749"/>
<polygon fill="#000000" stroke="#000000" points="60.5516,-185.6343 51.3325,-180.4133 55.2836,-190.2438 60.5516,-185.6343"/>
</g>
<!-- Monad -->
<g id="node3" class="node">
<title>Monad</title>
<polygon fill="none" stroke="#000000" points="398.8811,-108 343.5607,-108 343.5607,-72 398.8811,-72 398.8811,-108"/>
<text text-anchor="middle" x="371.2209" y="-85.8" font-family="Times,serif" font-size="14.00" fill="#000000">Monad</text>
</g>
<!-- Applicative&#45;&gt;Monad -->
<g id="edge2" class="edge">
<title>Applicative-&gt;Monad</title>
<path fill="none" stroke="#000000" d="M228.9219,-148.1573C258.4443,-137.8243 299.1756,-122.9625 334.2209,-108 334.3153,-107.9597 334.4099,-107.9192 334.5045,-107.8787"/>
<polygon fill="#000000" stroke="#000000" points="335.7803,-111.1424 343.4762,-103.8606 332.9191,-104.7538 335.7803,-111.1424"/>
</g>
<!-- Alternative -->
<g id="node6" class="node">
<title>Alternative</title>
<polygon fill="none" stroke="#000000" points="242.6943,-108 163.7475,-108 163.7475,-72 242.6943,-72 242.6943,-108"/>
<text text-anchor="middle" x="203.2209" y="-85.8" font-family="Times,serif" font-size="14.00" fill="#000000">Alternative</text>
</g>
<!-- Applicative&#45;&gt;Alternative -->
<g id="edge5" class="edge">
<title>Applicative-&gt;Alternative</title>
<path fill="none" stroke="#000000" d="M192.006,-143.8314C193.6103,-136.131 195.5179,-126.9743 197.3008,-118.4166"/>
<polygon fill="#000000" stroke="#000000" points="200.7716,-118.9169 199.3848,-108.4133 193.9188,-117.4892 200.7716,-118.9169"/>
</g>
<!-- Applicative&#45;&gt;Traversable -->
<g id="edge23" class="edge">
<title>Applicative-&gt;Traversable</title>
<path fill="none" stroke="#000000" stroke-dasharray="1,5" d="M174.9612,-143.8329C168.1525,-133.7256 160.2528,-120.6606 155.2209,-108 145.7248,-84.1072 140.6581,-54.67 138.2053,-36.1123"/>
</g>
<!-- MonadPlus -->
<g id="node7" class="node">
<title>MonadPlus</title>
<polygon fill="none" stroke="#000000" points="410.9982,-36 331.4436,-36 331.4436,0 410.9982,0 410.9982,-36"/>
<text text-anchor="middle" x="371.2209" y="-13.8" font-family="Times,serif" font-size="14.00" fill="#000000">MonadPlus</text>
</g>
<!-- Monad&#45;&gt;MonadPlus -->
<g id="edge6" class="edge">
<title>Monad-&gt;MonadPlus</title>
<path fill="none" stroke="#000000" d="M371.2209,-71.8314C371.2209,-64.131 371.2209,-54.9743 371.2209,-46.4166"/>
<polygon fill="#000000" stroke="#000000" points="374.721,-46.4132 371.2209,-36.4133 367.721,-46.4133 374.721,-46.4132"/>
</g>
<!-- MonadFix -->
<g id="node8" class="node">
<title>MonadFix</title>
<polygon fill="none" stroke="#000000" points="313.554,-36 238.8878,-36 238.8878,0 313.554,0 313.554,-36"/>
<text text-anchor="middle" x="276.2209" y="-13.8" font-family="Times,serif" font-size="14.00" fill="#000000">MonadFix</text>
</g>
<!-- Monad&#45;&gt;MonadFix -->
<g id="edge7" class="edge">
<title>Monad-&gt;MonadFix</title>
<path fill="none" stroke="#000000" d="M347.2484,-71.8314C335.4348,-62.8779 321.0237,-51.9558 308.2774,-42.2955"/>
<polygon fill="#000000" stroke="#000000" points="310.2695,-39.4137 300.1857,-36.1628 306.0414,-44.9925 310.2695,-39.4137"/>
</g>
<!-- ArrowApply -->
<g id="node13" class="node">
<title>ArrowApply</title>
<polygon fill="none" stroke="#000000" points="516.7537,-36 429.6881,-36 429.6881,0 516.7537,0 516.7537,-36"/>
<text text-anchor="middle" x="473.2209" y="-13.8" font-family="Times,serif" font-size="14.00" fill="#000000">ArrowApply</text>
</g>
<!-- Monad&#45;&gt;ArrowApply -->
<g id="edge20" class="edge">
<title>Monad-&gt;ArrowApply</title>
<path fill="none" stroke="#000000" stroke-width="2" d="M396.9598,-71.8314C412.4222,-60.9167 432.0293,-47.0764 447.4902,-36.1628"/>
</g>
<!-- Apply -->
<g id="node4" class="node">
<title>Apply</title>
<polygon fill="none" stroke="#c0c0c0" points="215.2209,-252 161.2209,-252 161.2209,-216 215.2209,-216 215.2209,-252"/>
<text text-anchor="middle" x="188.2209" y="-229.8" font-family="Times,serif" font-size="14.00" fill="#000000">Apply</text>
</g>
<!-- Apply&#45;&gt;Applicative -->
<g id="edge3" class="edge">
<title>Apply-&gt;Applicative</title>
<path fill="none" stroke="#000000" d="M188.2209,-215.8314C188.2209,-208.131 188.2209,-198.9743 188.2209,-190.4166"/>
<polygon fill="#000000" stroke="#000000" points="191.721,-190.4132 188.2209,-180.4133 184.721,-190.4133 191.721,-190.4132"/>
</g>
<!-- Semigroup -->
<g id="node5" class="node">
<title>Semigroup</title>
<polygon fill="none" stroke="#000000" points="410.1612,-252 332.2806,-252 332.2806,-216 410.1612,-216 410.1612,-252"/>
<text text-anchor="middle" x="371.2209" y="-229.8" font-family="Times,serif" font-size="14.00" fill="#000000">Semigroup</text>
</g>
<!-- Semigroup&#45;&gt;Apply -->
<g id="edge4" class="edge">
<title>Semigroup-&gt;Apply</title>
<path fill="none" stroke="#000000" stroke-dasharray="1,5" d="M332.2619,-234C293.3029,-234 254.3439,-234 215.385,-234"/>
</g>
<!-- Monoid -->
<g id="node9" class="node">
<title>Monoid</title>
<polygon fill="none" stroke="#000000" points="401.557,-180 340.8848,-180 340.8848,-144 401.557,-144 401.557,-180"/>
<text text-anchor="middle" x="371.2209" y="-157.8" font-family="Times,serif" font-size="14.00" fill="#000000">Monoid</text>
</g>
<!-- Semigroup&#45;&gt;Monoid -->
<g id="edge8" class="edge">
<title>Semigroup-&gt;Monoid</title>
<path fill="none" stroke="#000000" d="M371.2209,-215.8314C371.2209,-208.131 371.2209,-198.9743 371.2209,-190.4166"/>
<polygon fill="#000000" stroke="#000000" points="374.721,-190.4132 371.2209,-180.4133 367.721,-190.4133 374.721,-190.4132"/>
</g>
<!-- Monoid&#45;&gt;Applicative -->
<g id="edge9" class="edge">
<title>Monoid-&gt;Applicative</title>
<path fill="none" stroke="#000000" stroke-dasharray="1,5" d="M340.9364,-162C303.6132,-162 266.2901,-162 228.967,-162"/>
</g>
<!-- Monoid&#45;&gt;Monad -->
<g id="edge22" class="edge">
<title>Monoid-&gt;Monad</title>
<path fill="none" stroke="#000000" stroke-dasharray="1,5" d="M371.2209,-143.8314C371.2209,-133 371.2209,-119.2876 371.2209,-108.4133"/>
</g>
<!-- Monoid&#45;&gt;Alternative -->
<g id="edge11" class="edge">
<title>Monoid-&gt;Alternative</title>
<path fill="none" stroke="#000000" stroke-dasharray="1,5" d="M340.7974,-148.9613C313.376,-137.2093 272.8811,-119.8544 242.9198,-107.0138"/>
</g>
<!-- Monoid&#45;&gt;MonadPlus -->
<g id="edge12" class="edge">
<title>Monoid-&gt;MonadPlus</title>
<path fill="none" stroke="#000000" stroke-dasharray="1,5" d="M387.649,-143.989C395.5234,-134.1289 404.1189,-121.2441 408.2209,-108 412.9547,-92.7163 412.9547,-87.2837 408.2209,-72 404.1189,-58.7559 395.5234,-45.8711 387.649,-36.011"/>
</g>
<!-- Category -->
<g id="node10" class="node">
<title>Category</title>
<polygon fill="none" stroke="#000000" points="565.0386,-180 497.4032,-180 497.4032,-144 565.0386,-144 565.0386,-180"/>
<text text-anchor="middle" x="531.2209" y="-157.8" font-family="Times,serif" font-size="14.00" fill="#000000">Category</text>
</g>
<!-- Monoid&#45;&gt;Category -->
<g id="edge10" class="edge">
<title>Monoid-&gt;Category</title>
<path fill="none" stroke="#000000" stroke-dasharray="1,5" d="M401.5334,-162C433.5331,-162 465.5328,-162 497.5325,-162"/>
</g>
<!-- ArrowPlus -->
<g id="node16" class="node">
<title>ArrowPlus</title>
<polygon fill="none" stroke="#000000" points="749.3739,-108 673.0679,-108 673.0679,-72 749.3739,-72 749.3739,-108"/>
<text text-anchor="middle" x="711.2209" y="-85.8" font-family="Times,serif" font-size="14.00" fill="#000000">ArrowPlus</text>
</g>
<!-- Monoid&#45;&gt;ArrowPlus -->
<g id="edge19" class="edge">
<title>Monoid-&gt;ArrowPlus</title>
<path fill="none" stroke="#000000" stroke-dasharray="1,5" d="M401.8218,-157.043C466.261,-146.49 614.0426,-121.6538 663.2209,-108 666.3939,-107.1191 669.6524,-106.1168 672.9053,-105.0466"/>
</g>
<!-- Foldable -->
<g id="node17" class="node">
<title>Foldable</title>
<polygon fill="none" stroke="#000000" points="325.7139,-108 260.7279,-108 260.7279,-72 325.7139,-72 325.7139,-108"/>
<text text-anchor="middle" x="293.2209" y="-85.8" font-family="Times,serif" font-size="14.00" fill="#000000">Foldable</text>
</g>
<!-- Monoid&#45;&gt;Foldable -->
<g id="edge21" class="edge">
<title>Monoid-&gt;Foldable</title>
<path fill="none" stroke="#000000" stroke-dasharray="1,5" d="M351.5382,-143.8314C339.714,-132.9167 324.7204,-119.0764 312.8973,-108.1628"/>
</g>
<!-- Arrow -->
<g id="node11" class="node">
<title>Arrow</title>
<polygon fill="none" stroke="#000000" points="558.2209,-108 504.2209,-108 504.2209,-72 558.2209,-72 558.2209,-108"/>
<text text-anchor="middle" x="531.2209" y="-85.8" font-family="Times,serif" font-size="14.00" fill="#000000">Arrow</text>
</g>
<!-- Category&#45;&gt;Arrow -->
<g id="edge13" class="edge">
<title>Category-&gt;Arrow</title>
<path fill="none" stroke="#000000" d="M531.2209,-143.8314C531.2209,-136.131 531.2209,-126.9743 531.2209,-118.4166"/>
<polygon fill="#000000" stroke="#000000" points="534.721,-118.4132 531.2209,-108.4133 527.721,-118.4133 534.721,-118.4132"/>
</g>
<!-- ArrowChoice -->
<g id="node12" class="node">
<title>ArrowChoice</title>
<polygon fill="none" stroke="#000000" points="627.4119,-36 535.0299,-36 535.0299,0 627.4119,0 627.4119,-36"/>
<text text-anchor="middle" x="581.2209" y="-13.8" font-family="Times,serif" font-size="14.00" fill="#000000">ArrowChoice</text>
</g>
<!-- Arrow&#45;&gt;ArrowChoice -->
<g id="edge14" class="edge">
<title>Arrow-&gt;ArrowChoice</title>
<path fill="none" stroke="#000000" d="M543.838,-71.8314C549.5381,-63.6232 556.3872,-53.7606 562.6568,-44.7323"/>
<polygon fill="#000000" stroke="#000000" points="565.6047,-46.6234 568.4339,-36.4133 559.8551,-42.6306 565.6047,-46.6234"/>
</g>
<!-- Arrow&#45;&gt;ArrowApply -->
<g id="edge15" class="edge">
<title>Arrow-&gt;ArrowApply</title>
<path fill="none" stroke="#000000" d="M516.5851,-71.8314C509.9048,-63.5386 501.8641,-53.557 494.5305,-44.4533"/>
<polygon fill="#000000" stroke="#000000" points="497.0528,-42.0052 488.0538,-36.4133 491.6015,-46.3965 497.0528,-42.0052"/>
</g>
<!-- ArrowLoop -->
<g id="node14" class="node">
<title>ArrowLoop</title>
<polygon fill="none" stroke="#000000" points="727.3079,-36 645.1339,-36 645.1339,0 727.3079,0 727.3079,-36"/>
<text text-anchor="middle" x="686.2209" y="-13.8" font-family="Times,serif" font-size="14.00" fill="#000000">ArrowLoop</text>
</g>
<!-- Arrow&#45;&gt;ArrowLoop -->
<g id="edge16" class="edge">
<title>Arrow-&gt;ArrowLoop</title>
<path fill="none" stroke="#000000" d="M558.2941,-76.3268C561.2982,-74.8504 564.3193,-73.3831 567.2209,-72 589.6988,-61.2851 614.7768,-49.8319 636.0935,-40.2429"/>
<polygon fill="#000000" stroke="#000000" points="637.5983,-43.4039 645.2892,-36.1169 634.7327,-37.0174 637.5983,-43.4039"/>
</g>
<!-- ArrowZero -->
<g id="node15" class="node">
<title>ArrowZero</title>
<polygon fill="none" stroke="#000000" points="654.6831,-108 575.7587,-108 575.7587,-72 654.6831,-72 654.6831,-108"/>
<text text-anchor="middle" x="615.2209" y="-85.8" font-family="Times,serif" font-size="14.00" fill="#000000">ArrowZero</text>
</g>
<!-- Arrow&#45;&gt;ArrowZero -->
<g id="edge17" class="edge">
<title>Arrow-&gt;ArrowZero</title>
<path fill="none" stroke="#000000" d="M558.4553,-90C560.7974,-90 563.1395,-90 565.4817,-90"/>
<polygon fill="#000000" stroke="#000000" points="565.7511,-93.5001 575.7511,-90 565.751,-86.5001 565.7511,-93.5001"/>
</g>
<!-- ArrowZero&#45;&gt;ArrowPlus -->
<g id="edge18" class="edge">
<title>ArrowZero-&gt;ArrowPlus</title>
<path fill="none" stroke="#000000" d="M654.9709,-90C657.5985,-90 660.226,-90 662.8536,-90"/>
<polygon fill="#000000" stroke="#000000" points="662.9885,-93.5001 672.9885,-90 662.9884,-86.5001 662.9885,-93.5001"/>
</g>
<!-- Foldable&#45;&gt;Traversable -->
<g id="edge24" class="edge">
<title>Foldable-&gt;Traversable</title>
<path fill="none" stroke="#000000" d="M260.6904,-75.0816C238.7888,-65.0375 209.5159,-51.613 184.861,-40.3063"/>
<polygon fill="#000000" stroke="#000000" points="186.2116,-37.0752 175.6629,-36.088 183.2936,-43.438 186.2116,-37.0752"/>
</g>
</g>
</svg>